2 Modelado en Minería de datos | Minería de datos con R
…
## [1] "2.Mujer"

#para el departamento 
centralValue(eh19p$depto)

## [1] "La Paz"

A veces es mejor ver los resultados por grupos, por ejemplo, podemos verlo por departamento y área.

eh19p %>% group_by(depto,area,p0) %>% summarise(media_edad=mean(s02a_03),mediana_edad=median(s02a_03),centralValue(s02a_02),n())

## `summarise()` regrouping output by 'depto', 'area' (override with `.groups` argument)

## # A tibble: 43 x 7
## # Groups:   depto, area [18]
##    depto  area  p0    media_edad mediana_edad `centralValue(s~ `n()`
##    <fct>  <fct> <fct>      <dbl>        <dbl> <chr>            <int>
##  1 Chuqu~ Urba~ No p~       32.5         28   2.Mujer            987
##  2 Chuqu~ Urba~ Pobre       24.6         20   2.Mujer            832
##  3 Chuqu~ Urba~ <NA>        14           14   2.Mujer              1
##  4 Chuqu~ Rural No p~       35.6         35.5 1.Hombre           436
##  5 Chuqu~ Rural Pobre       32.0         26   2.Mujer            876
##  6 Chuqu~ Rural <NA>        51           51   2.Mujer              1
##  7 La Paz Urba~ No p~       33.9         30.5 2.Mujer           5356
##  8 La Paz Urba~ Pobre       25.7         21   2.Mujer           3246
##  9 La Paz Urba~ <NA>        28.9         29.5 2.Mujer             14
## 10 La Paz Rural No p~       35.1         30.5 1.Hombre           480
## # ... with 33 more rows
…
